…
As shown here, all the columns have a 0 for null values, which means
that there are no empty values in any column. This means that we will
not have to worry about accounting for null values during the data
cleaning process.

``` r
unique(data)
```

    ## # A tibble: 10,000 × 15
    ##    Stress_Level Sector  Increased_Work_Hours Work_From_Home Hours_Worked_Per_Day
    ##    <chr>        <chr>                  <dbl>          <dbl> <chr>               
    ##  1 Low          Retail                     1              1 6.392.393.639.805.8…
    ##  2 Low          IT                         1              1 9.171.983.537.957.5…
    ##  3 Medium       Retail                     1              0 10.612.560.951.456.…
    ##  4 Medium       Educat…                    1              1 5.546.168.647.409.5…
    ##  5 Medium       Educat…                    0              1 11.424.615.456.733.…
    ##  6 Low          IT                         1              1 7.742.897.931.229.7…
    ##  7 Medium       IT                         0              0 6.049.957.230.122.9…
    ##  8 High         Health…                    1              1 9.515.509.560.416.3…
    ##  9 Medium       Educat…                    1              1 7.107.091.043.489.9…
    ## 10 High         Educat…                    1              1 7.836.526.647.937.0…
    ## # ℹ 9,990 more rows
    ## # ℹ 10 more variables: Meetings_Per_Day <chr>, Productivity_Change <dbl>,
    ## #   Health_Issue <dbl>, Job_Security <dbl>, Childcare_Responsibilities <dbl>,
    ## #   Commuting_Changes <dbl>, Technology_Adaptation <dbl>, Salary_Changes <dbl>,
    ## #   Team_Collaboration_Challenges <dbl>, Affected_by_Covid <dbl>
…
